ACER,448420,448764,448765,448766,448767,448812,449166,449167,449168,449169,449170,449171,449222,449223,449287,449289,449332,500003,500004,500018,500019,500020,500021,500022,500023,500024,500025,500026,500027,500028,500029,520252,330031,350659,350660,35158604,35180806,35180906,35245306,35350903,35397805,35410005,35504205,35533805,35558200,35711404,35721904,33003104
ASUS,35173800,35174800,35176400,35182406,35215200,35225106,35249606,35269301,35287501,35296702,35302002,35323802,35347201,35357400,35378405,35378505,35406202,35424002,35440005,35485306,35492805,35502405,35508104,35513500,35538305,35567801,35661905,35665105,35674000,35695006,35698202,35704802,35711406,35711506,35727301,35728701,35756702,35783305,35791101,35810804,35850101,35877100,35880903,35888100,35913100,35967101,35986104,35988103
HTC,35803106,35152306,35155301,35155701,35167603,35169501,35169903,35171303,35176304,35181605,35183505,35190406,35191703,35194000,35196104,35200702,35208304,35217805,35221204,35227605,35231403,35244201,35255501,35262904,35264002,35266604,35266704,35266804,35268102,35270606,35270806,35277504,35279505,35280305,35281104,35286201,35303000,35304305,35311505,35314502,35315101,35317602,35318802,35319002,35331305,35342605,35342805,35344302,35352503,35356705,35356905,35372304,35375303,35376005,35383304,35383406,35383506,35389705,35392303,35394705,35396902,35399403,35399505,35405902,35412003,35429501,35431202,35431603,35434102,35437905,35438401,35443505,35443605,35443905,35445504,35446105,35450302,35469204,35495703,35495803,35496006,35497404,35500702,35502602,35502705,35504601,35506604,35506704,35519500,35520302,35525701,35530104,35530204,35530402,35543004,35543204,35563502,35563602,35571401,35574604,35575102,35575701,35577804,35577904,35579704,35585604,35585905,35586605,35586805,35598001,35604001,35615802,35617402,35623305,35629904,35635704,35637605,35638100,35638400,35640904,35644004,35652201,35661001,35670804,35678501,35678601,35678701,35678801,35678901,35681204,35687104,35703204,35703502,35721503,35739401,35755901,35756801,35758506,35762906,35765405,35765505,35771004,35771900,35775804,35777903,35780504,35781404,35784103,35786405,35795304,35798802,35800004,35803504,35804405,35807104,35808704,35816700,35822504,35824001,35827901,35828001,35831304,35835301,35835502,35837401,35837501,35846504,35847201,35849101,35851203,35869704,35870104,35870406,35870506,35871405,35871606,35871702,35872106,35877201,35883504,35884502,35885002,35892004,35892704,35896704,35896804,35899202,35902803,35903901,35911804,35914404,35918804,35922304,35940505,35942001,35942600,35946504,35954603,35961404,35964401,35969104,35978804,35983604,35990104,35990204,35991804
GIONEE,35459500,35714904,86735302,35313702,35746500,35912101,86213200,86278202,86280902,86336702,86574702,35268602
HAIER,35155600,35160400,35164700,35170200,35214800,35226400,35284904,35361200,35388700,35389400,35447401,35546200,35549500,35616800,35670000,35696100,86551801,448762,449323,500034,520033,520087,520088,520089,520090,520362,350723,350761,350975,351172,351407,351419
HUAWEI,86735302,35155303,35159603,35182701,35185104,35186904,35191104,35197901,35221504,35221904,35234001,35239804,35242002,35283503,35283603,35295702,35296404,35304304,35305802,35305902,35310104,35314203,35314204,35314303,35314503,35314804,35328402,35344404,35346604,35361304,35376203,35387102,35397304,35407304,35410403,35410904,35413602,35413702,35423204,35424102,35428304,35442904,35452504,35456104,35459500,35464301,35465201,35466103,35474704,35475302,35476403,35476503,35497604,35508301,35509302,35509304,35551404,35585602,35589804,35591704,35593802,35606402,35607902,35618503,35634504,35634604,35638500,35638700,35641100,35645903,35654300,35655901,35656203,35663502,35679304,35703002,35709904,35713000,35714904,35719104,35719501,35723204,35729404,35745604,35751802,35751803,35759204,35766504,35778603,35778904,35786501,35789303,35794303,35810902,35819101,35819201,35819301,35870503,35871103,35881203,35884003,35895400,35898803,35920802,35942801,35942901,35944300,35944400,35963801,86001601,86003900,86008501,86009102,86010801,86048302,86050502,86076501,86087201,86099900,86100200,86104600,86113200,86114501,86122901,86175000,86189501,86196101,86207601,86242600,86245502,86250502,86253601,86257102,86259902,86269902,86275202,86303001,86310101,86344801,86349601,86352202,86361901,86362502,86364300,86378101,86421802,86458102,86458302,86574202,86574402,86606401,86608901,86653901,86671401,86671501,86685400,86736101,86754800,86770801,86774901,86776700,86798901,86803100,86809601,86832901,86843801,86849601,86862401,86880101,86883400,86893100,86927401,86933601,86987400,86987800,1116200,1139900,1148400,1148500,1171100
LAVA,91054550,91123545,91124310,91124535,91125050,91125305,91125355,91125465
ONEPLUS,86458702,86580002,86804902
OPPO,35513804,86574002,86942101
KYOCERA,448614,449246,449290,30000204
LGE,35648905,35824005,35391805,5859304,35213606,35463102,35468502,35469303,35469503,35470101,35473801,35477700,35483900,35485105,35486700,35487600,35490303,35490404,35491201,35491401,35493100,35493200,35493502,35496301,35496304,35496306,35497002,35499503,35504004,35511600,35512101,35513305,35513605,35517304,35519400,35519706,35525401,35526700,35528504,35529605,35531101,35533205,35542401,35542501,35542902,35547105,35552500,35554900,35560406,35560506,35560605,35560606,35561404,35561600,35564600,35564700,35565605,35567205,35569503,35570705,35573703,35573903,35577301,35585501,35585703,35587506,35600900,35602000,35602100,35602200,35603800,35605100,35607105,35611605,35612700,35613001,35618500,35618600,35618700,35619200,35621604,35626600,35628804,35631801,35634500,35635400,35635500,35636900,35638501,35643703,35646100,35647805,35649005,35653800,35654803,35654903,35655003,35655800,35659107,35673201,35673301,35674800,35674803,35676500,35676605,35677204,35700800,35701403,35704102,35704202,35704302,35705000,35709002,35710100,35711604,35712103,35713600,3572320
MICROMAX,91000200,91136710,98000500,91000025,91000100,91000101,91000102,91000104,91000105,91000106,91000107,91000111,91000115,91000116,91000121,91000150,91000151,91000152,91000153,91000246,91000255,91000500,91000900,91000901,91000903,91002340,91002360,91004005,91005810,91053560,91056940,91112350,91122310,91123295,91123925,91125015,91125365,91125375
MOTOROLA,10015004,35929005,35351200,35191405,35332506,35871200,35873302,35876700,35877701,35877801,35877901,35878101,35878301,35878601,35879301,35879401,35879601,35879701,35890000,35890100,35890300,35890400,35890600,35890700,35890800,35890900,35891000,35891100,35891200,35891400,35891600,35891700,35891900,35892000,35892100,35892200,35892500,35896104,35900300,35917600,35917700,35917800,35917900,35918000,35918100,35918200,35918300,35918400,35918500,35918700,35918800,35919000,35919100,35919200,35919300,35919400,35919500,35919600,35919800,35920101,35920301,35920601,35920801,35921401,35921501,35922301,35927605,35929105,35929905,35930005,35930705,35932005,35932105,35932305,35932405,35940100,35940200,35940300,35940400,35940500,35940600,35940800,35940900,35941000,35941100,35941200,35941300,35941400,35941500,35941600,35941700,35941800,35941900,35942000,35942100,35942200,35942300,35942400,35942500,35949104,35960301,35960401,35960801,35960901,35961201,35961301,35961501,35961801,35962100,35962101,35962201,35968300,35978600,35980100,35980200,35980300,35980400,35980800,3598100
SAMSUNG,35909205,35151401,35152205,35152405,35152706,35153306,35153803,35154206,35154906,35155405,35156505,35156800,35157501,35157802,35157902,35158701,35160206,35160306,35161401,35161606,35162300,35162400,35162500,35162600,35165106,35165206,35166006,35166503,35166506,35166703,35166901,35168201,35169701,35169801,35170004,35170800,35172000,35172100,35172205,35172405,35172505,35172805,35173705,35174005,35174601,35174605,35175004,35175104,35175401,35176300,35176900,35177000,35177606,35178006,35178104,35179401,35179505,35179700,35179800,35179805,35179900,35179901,35179906,35180000,35180001,35180104,35180201,35180406,35180900,35181201,35181301,35181805,35182005,35182205,35182305,35182405,35182505,35183100,35183200,35183300,35183400,35183500,35183600,35183700,35183701,35184300,35185205,35186105,35186304,35186305,35186400,35186505,35186905,35187202,35187305,35188305,35188606,35188900,35189000,35189100,35189102,35189605,35190401,35190702,35191201,35191303,35191403,35192500,35193600,35194106,35194206,35194504,35194701,35195900,35197801,35198001,35198200,35199300,35200001,35200101,35200201,35200301,35200801,35201305,35202301,35202803,35205204,35205304,35205501,35205905,35206901,35207005,35208101,35208505,35208605,35208904,35209300,35210001,35210105,35210404,35210706,35211005,35211101,35211105,35211205,35211305,35211505,35211605,35211606,35211905,35212201,35212901,35213001,35213301,35213502,35214301,35215905,35216605,35216705,35217205,35217506,35217900,35218204,35218504,35219201,35219301,35219401,35219501,35219900,35220000,35220604,35220804,35220901,35221506,35223900,35224000,35224100,35224200,35224300,35224400,35226105,35227205,35227405,35228000,35228505,35228604,35228605,35228700,35228800,35228900,35228905,35229000,35229100,35229205,35229302,35229305,35230207,35230605,35230804,35230906,35231107,35231505,35231506,35231806,35232000,35232004,35232006,35232101,35233604,35233704,35233804,35233902,35234403,35234800,35235301,35236100,35236200,35236300,35236400,35236500,35237205,35237305,35237405,35237505,35237603,35237605,35237705,35237901,35238405,35238505,35238604,35242301,35242501,35243301,35243401,35244202,35244701,35244903,35245003,35246900,35247000,35247100,35247200,35247300,35247400,35247700,35247704,35247800,35247900,35248000,35248100,35248200,35248300,35250000,35250203,35251306,35252506,35254301,35254602,35255004,35255100,35255101,35255104,35255200,35255300,35255504,35255704,35255806,35256101,35256202,35256301,35256302,35256800,35256905,35257000,35257401,35257600,35258103,35258300,35258305,35259102,35259300,35259400,35259500,35260505,35260706,35260805,35261006,35261206,35261306,35261406,35261504,35261506,35261706,35261805,35261900,35262000,35262100,35262200,35262300,35263800,35263900,35264103,35265001,35265101,35265102,35265201,35265202,35266301,35266601,35266701,35267404,35267601,35268501,35268905,35269000,35269302,35269501,35270105,35270205,35270601,35270700,35270701,35270800,35271101,35271201,35271400,35271500,35272604,35272805,35273506,35273700,35274506,35274800,35274900,35275000,35275006,35275305,35278100,35279401,35279600,35280001,35280700,35280800,35280901,35281501,35281601,35281605,35281902,35282603,35282902,35283203,35283303,35283400,35283606,35283907,35284007,35284107,35284204,35284207,35284301,35284307,35284401,35284407,35284607,35284707,35284807,35284907,35285002,35285102,35288902,35290301,35290305,35290401,35290901,35291001,35291205,35291306,35291700,35291800,35291900,35292000,35292005,35292100,35293105,35293505,35294405,35294605,35295007,35295607,35295706,35295707,35295807,35295902,35295907,35296104,35297101,35298201,35298204,35298505,35298605,35298701,35298905,35299005,35299006,35299106,35299200,35299305,35299306,35299701,35299901,35300001,35300405,35300502,35300505,35301200,35301300,35301400,35301500,35301600,35301905,35302005,35302205,35302405,35302703,35303104,35303701,35303900,35304404,35304704,35305603,35305805,35307000,35307001,35307100,35307200,35307302,35307502,35309105,35309205,35309304,35309504,35309604,35309704,35310301,35310305,35310401,35310906,35311201,35311901,35311905,35312201,35312407,35312900,35313000,35313001,35313100,35313200,35313201,35313300,35313301,35313401,35313801,35313905,35314901,35315301,35315305,35315601,35316305,35316405,35316605,35316805,35317005,35320000,35320502,35320901,35321001,35321900,35322206,35322406,35322500,35323304,35324000,35324402,35324902,35325007,35326100,35327606,35327706,35327800,35328504,35328506,35328700,35328800,35329402,35329802,35330601,35331202,35331302,35331405,35331800,35331801,35331900,35331901,35332000,35332100,35332705,35332805,35332902,35333500,35334104,35334501,35334605,35334703,35334800,35334900,35335001,35335003,35335103,35336902,35338502,35339105,35342106,35343404,35343504,35343601,35343704,35343902,35344002,35344102,35344401,35345001,35345201,35345404,35345702,35345804,35346301,35346401,35346600,35346700,35346800,35346900,35347000,35347901,35348101,35348901,35349401,35349601,35350107,35350207,35350507,35350607,35350707,35350807,35350901,35350907,35351605,35353104,35353805,35354900,35355104,35355202,35356601,35356602,35357106,35357505,35357605,35357800,35358203,35358600,35358700,35358800,35358900,35360400,35360402,35360500,35360505,35360600,35360805,35360905,35361900,35362000,35362100,35362200,35362705,35362903,35362905,35363005,35363203,35363205,35365500,35365604,35366702,35367000,35367002,35367100,35367102,35367200,35367300,35367400,35367500,35367904,35368706,35369303,35370004,35370101,35371201,35371805,35371905,35372005,35372105,35373403,35373706,35373806,35374002,35374205,35374305,35374603,35374806,35375006,35376002,35376805,35376905,35377105,35377701,35378001,35380005,35380100,35380106,35380200,35380300,35381000,35381601,35381705,35381805,35382405,35382601,35382701,35383301,35384501,35384505,35384601,35385405,35385800,35386601,35386702,35386901,35387201,35387705,35387805,35388202,35388302,35388803,35389501,35389801,35390302,35392100,35392105,35392200,35392205,35392300,35392400,35392405,35392604,35394204,35395904,35396203,35396300,35396400,35396503,35396800,35397003,35397305,35397405,35397505,35397601,35397605,35399301,35399901,35401203,35401705,35402300,35403901,35404401,35404805,35405501,35405601,35406200,35406300,35406704,35406904,35407705,35408105,35408205,35408405,35409302,35409402,35409805,35409905,35411803,35414700,35414800,35415000,35415004,35415500,35415505,35415605,35415900,35416000,35416301,35416900,35417104,35417801,35419200,35419300,35419400,35419601,35419800,35420702,35421006,35421206,35421405,35421506,35421606,35421806,35421906,35422301,35422401,35424003,35424205,35424305,35424405,35424505,35425305,35425602,35425802,35426101,35426301,35426601,35426704,35427202,35427300,35427502,35427603,35427700,35427703,35427800,35429700,35429800,35429801,35429900,35429901,35430000,35431405,35431501,35431505,35431601,35431701,35432102,35432201,35432206,35433501,35433603,35433701,35433805,35433905,35434005,35434601,35434701,35435002,35435005,35435104,35435205,35435705,35435706,35436300,35436903,35437100,35440102,35440202,35440604,35440905,35441005,35441701,35441706,35444106,35444701,35445100,35445307,35446202,35446302,35446502,35447704,35448004,35448100,35448200,35448300,35448400,35449404,35450405,35450505,35450605,35452105,35452202,35452205,35452302,35452402,35453100,35453200,35454902,35455400,35455500,35455600,35455603,35456003,35457601,35457904,35458701,35460006,35461001,35461101,35461904,35462700,35462704,35463200,35463401,35465405,35465604,35466005,35466105,35466605,35467601,35471001,35471101,35471400,35472005,35472604,35472700,35472800,35473102,35473202,35473406,35473506,35473606,35473706,35473806,35473906,35474603,35475504,35475604,35475802,35476002,35477004,35477805,35477904,35478104,35478405,35478505,35478603,35478606,35479205,35479300,35479305,35479405,35479504,35479604,35479700,35479804,35480800,35481802,35482605,35483305,35484200,35484500,35484605,35485701,35485900,35486000,35486200,35487700,35488103,35488606,35488901,35489001,35489004,35490205,35490505,35491205,35491305,35491400,35491405,35491505,35491605,35491907,35492603,35494501,35494901,35494904,35495305,35495405,35495605,35495805,35495905,35496803,35497601,35497704,35497900,35498102,35498502,35498600,35499101,35499305,35499601,35501203,35501801,35502001,35502106,35502206,35502306,35502406,35502506,35503104,35503301,35504904,35505104,35505106,35505205,35505404,35505406,35505605,35505606,35505700,35505704,35505800,35505806,35505906,35506004,35506706,35507000,35507005,35507205,35507405,35508204,35508801,35509201,35509301,35509900,35513802,35513902,35515105,35515601,35516205,35516405,35516604,35516705,35517004,35517104,35517205,35517400,35517603,35517803,35517903,35518003,35518204,35519501,35519601,35519701,35520106,35520306,35520606,35520701,35520706,35521000,35523800,35523900,35524102,35524302,35524902,35525105,35525300,35525301,35525305,35525800,35525805,35526101,35526201,35526301,35526401,35526405,35526604,35526605,35526805,35527105,35527504,35528402,35528600,35528700,35528704,35528800,35529504,35529604,35529903,35529904,35531004,35531204,35531504,35531704,35531804,35532400,35532401,35534004,35534104,35534304,35535305,35535405,35535505,35535601,35535605,35535705,35536501,35536806,35537006,35537101,35537106,35537406,35538301,35539302,35539402,35539501,35539801,35539802,35539901,35540204,35540904,35542805,35542900,35543005,35543105,35543402,35544800,35544900,35544905,35545005,35545800,35545801,35545901,35546001,35546201,35546301,35546402,35546501,35546601,35546700,35546800,35547103,35547901,35548500,35548900,35549401,35549402,35550000,35550700,35551800,35552100,35552300,35552402,35552704,35552803,35553004,35553305,35553703,35554205,35554505,35554805,35555804,35556902,35557300,35557700,35557705,35558000,35558100,35559301,35559305,35559501,35559905,35560005,35560006,35561202,35562100,35562605,35563902,35565401,35565703,35565801,35568302,35568505,35568605,35568705,35569304,35569505,35569605,35571400,35571703,35571804,35572204,35572300,35573100,35575301,35575703,35575803,35576202,35576300,35576402,35576502,35577800,35578901,35579501,35579504,35579905,35580001,35580602,35581101,35581504,35582705,35582905,35583005,35583105,35583305,35584302,35584705,35585005,35585301,35585400,35585701,35587404,35587504,35588005,35588405,35588500,35588505,35588605,35588805,35589004,35589105,35589300,35589600,35589800,35589900,35590900,35591100,35592104,35592501,35597000,35597401,35597704,35598600,35598700,35599002,35599201,35599405,35599505,35599605,35599801,35599901,35599904,35600000,35600005,35600106,35600306,35601303,35601503,35602400,35602500,35602604,35602605,35602804,35603001,35603101,35603201,35603505,35603605,35604102,35604202,35604404,35604501,35604704,35604804,35606004,35606104,35606500,35607501,35607705,35608000,35608100,35608200,35608300,35608302,35609205,35609400,35609500,35609600,35609700,35609800,35610403,35610704,35610804,35611901,35612600,35613900,35614105,35615005,35615102,35615202,35615402,35615500,35615700,35615702,35615800,35616000,35616600,35616700,35617603,35617904,35618004,35618102,35619903,35620105,35624903,35626005,35626105,35626300,35626605,35626805,35626900,35627603,35629705,35629804,35629900,35631503,35632502,35633004,35634101,35635001,35635101,35635902,35636101,35636104,35636604,35636804,35637301,35637600,35638706,35638901,35641205,35642007,35642505,35642905,35643000,35643100,35643105,35643204,35643505,35644000,35644603,35644605,35645500,35645600,35645800,35650301,35650305,35650601,35650805,35651100,35651105,35651205,35651600,35651705,35651803,35651805,35651905,35652103,35652704,35652801,35653104,35653802,35653900,35654100,35654301,35655405,35655501,35655505,35655601,35655605,35656205,35656300,35656500,35656505,35656600,35656605,35656705,35658100,35658701,35658900,35659104,35659203,35659301,35659401,35659701,35660000,35660301,35660701,35661502,35662705,35663105,35663303,35663305,35663705,35663804,35665005,35667600,35669000,35669100,35669200,35669700,35669802,35670001,35671203,35671604,35672605,35672805,35672905,35673204,35673504,35674305,35675400,35675500,35675505,35675903,35676106,35676506,35676606,35676806,35676906,35677101,35677301,35677905,35678000,35678100,35678200,35678305,35679201,35679404,35679904,35681100,35681200,35681800,35682905,35683104,35683304,35683305,35683400,35684305,35684405,35684505,35686103,35687605,35688900,35689100,35689104,35689200,35689300,35689805,35689905,35690006,35690100,35691001,35691201,35691601,35692104,35692304,35692805,35692904,35693200,35693201,35693301,35693401,35693405,35693705,35693800,35693805,35693900,35693905,35694502,35694605,35694804,35695204,35696400,35696500,35697905,35698005,35698303,35698403,35698900,35699000,35702400,35702600,35702601,35704103,35704501,35705005,35706303,35706305,35708205,35708404,35708905,35709005,35709105,35709205,35710200,35710804,35711100,35711200,35711300,35711304,35711400,35712100,35712200,35712300,35712800,35713005,35713202,35713302,35713800,35713805,35713900,35713901,35713905,35714001,35714605,35715800,35715804,35715900,35716004,35716800,35717103,35717200,35717201,35717301,35717500,35717801,35718205,35718504,35718905,35719404,35719505,35719605,35719705,35719805,35720203,35720500,35720700,35720804,35723404,35723703,35723804,35724204,35724302,35724601,35724801,35726204,35727200,35728300,35728804,35729001,35730500,35730600,35730703,35732100,35732900,35733104,35733204,35734200,35734404,35734504,35734802,35735301,35735505,35735700,35736200,35736505,35737103,35737203,35737605,35737705,35737801,35737803,35737805,35738103,35739305,35739605,35739705,35739900,35740300,35740400,35742605,35742901,35743205,35744105,35744502,35744701,35744801,35744803,35744805,35744901,35745000,35745101,35745301,35745304,35745401,35745501,35745700,35746704,35746900,35747000,35747004,35747400,35747404,35748201,35748401,35749200,35749600,35749604,35750305,35750405,35750605,35750701,35750703,35750705,35750805,35750905,35751505,35752300,35752600,35753003,35753400,35754704,35754801,35755101,35757205,35757506,35758002,35763305,35763405,35763905,35764505,35764705,35764904,35765005,35765504,35767603,35767903,35768003,35768303,35770700,35771100,35771400,35771500,35772402,35772901,35772905,35773005,35773101,35773105,35773205,35773605,35773705,35773800,35774205,35774600,35774705,35774906,35775004,35775300,35775400,35775500,35777000,35777101,35777600,35777805,35778605,35779405,35779803,35779805,35779905,35780000,35780005,35780103,35780502,35780602,35780704,35781200,35781204,35781600,35783500,35783603,35784100,35785304,35785401,35785501,35786204,35786304,35786600,35786700,35789400,35789403,35790800,35791002,35792904,35793004,35793501,35794701,35794704,35794801,35795103,35795203,35795303,35795704,35796203,35796505,35796705,35796801,35796805,35797800,35798101,35798400,35799100,35799300,35799400,35799500,35799900,35800104,35801004,35801104,35801301,35801401,35801805,35801905,35802005,35802105,35802803,35803703,35803903,35804003,35804304,35804904,35805403,35805504,35806100,35806600,35806700,35806800,35807005,35807300,35807700,35807704,35807800,35808102,35808903,35809104,35810501,35811106,35811306,35811404,35811406,35811506,35811706,35811800,35811806,35812301,35812503,35812801,35813501,35815004,35815704,35815800,35815900,35817304,35817600,35817601,35817700,35817800,35818805,35819100,35819200,35819405,35820000,35821001,35822101,35822300,35822400,35822401,35822402,35822500,35822702,35825405,35826002,35826102,35826305,35826705,35826805,35827005,35827301,35827700,35829401,35829501,35829601,35829701,35830105,35830205,35830305,35830405,35830505,35830605,35830705,35830805,35830905,35831005,35831600,35831604,35832100,35832505,35833200,35833600,35834204,35834704,35835004,35837404,35839802,35839804,35840104,35840402,35841204,35841404,35842104,35842204,35842900,35843300,35844102,35844301,35844401,35844500,35844901,35846400,35846500,35847204,35848702,35848804,35849004,35849505,35850006,35851404,35851900,35852300,35852404,35853200,35853206,35853304,35853305,35853306,35853404,35853506,35853704,35853705,35854200,35854206,35470901,3550580
samsng,35470901,35514304,35609605,35829801,35462700,35462704,35463200,35463401,35465405,35465604,35466005,35466105,35466605,35467601,35471001,35471101,35471400,35472005,35472604,35472700,35472800,35473102,35473202,35473406,35473506,35473606,35473706,35473806,35473906,35474603,35475504,35475604,35475802,35476002,35477004,35477805,35477904,35478104,35478405,35478505,35478603,35478606,35479205,35479300,35479305,35479405,35479504,35479604,35479700,35479804,35480800,35481802,35482605,35483305,35484200,35484500,35484605,35485701,35485900,35486000,35486200,35487700,35488103,35488606,35488901,35489001,35489004,35490205,35490505,35491205,35491305,35491400,35491405,35491505,35491605,35491907,35492603,35494501,35494901,35494904,35495305,35495405,35495605,35495805,35495905,35496803,35497601,35497704,35497900,35498102,35498502,35498600,35499101,35499305,35499601,35501203,35501801,35502001,35502106,35502206,35502306,35502406,35502506,35503104,35503301,35504904,35505104,35505106,35505205,35505404,35505406,35505605,35505606,35505700,35505704,35505800,3550580
SONY,35168006,35180306,35226405,35226505,35226605,35249406,35264006,35279406,35287606,35289005,35289105,35290005,35294706,35301206,35325406,35325506,35325606,35325706,35326706,35337505,35344805,35356105,35359605,35361705,35372205,35372305,35380905,35381105,35384906,35386105,35388806,35393305,35427806,35438605,35439005,35445705,35472406,35480506,35480705,35485705,35509806,35510105,35511305,35518806,35529905,35538505,35538705,35546505,35555705,35560906,35561305,35566605,35576205,35581906,35587505,35617905,35619005,35619405,35638505,35653405,35653505,35660305,35660405,35660505,35676805,35712305,35740205,35765206,35765605,35765705,35786505,35794505,35804605,35808005,35809105,35809405,35809505,35809605,35809805,35809905,35871106,35922106,35922206,35965205,35977305,35977405,35977505,35171005,35238402,35511405,35851004,490025,490118,450066,450069,450087,450088,457019,457020,457025,457026,1281100,1325900,1370100,35845804,350081,350082,350094,350095,350100,350177,350178,350383,350617,350618,350667,350668,350671
SONY ERICSSON,35511405,35851004,35155503,35155802,35155901,35156001,35156101,35156602,35159502,35159602,35160003,35160901,35165002,35165302,35167301,35167401,35167701,35170701,35170801,35170901,35171001,35171005,35171202,35180603,35182902,35184101,35184501,35185700,35187005,35188005,35190102,35192600,35192700,35192800,35192900,35193000,35193100,35193200,35194101,35194201,35194301,35195600,35195700,35195701,35195800,35196500,35196800,35197200,35198300,35198400,35198500,35198600,35198700,35198800,35198900,35199000,35199200,35201402,35201900,35202000,35202203,35204503,35206501,35206601,35206801,35207901,35207902,35208200,35212200,35212400,35212401,35212501,35220601,35220701,35220801,35223902,35224102,35233500,35233501,35233601,35233701,35235001,35238201,35238202,35238402,35240101,35243002,35255701,35255801,35256002,35256902,35257002,35257102,35260005,35263603,35268200,35268302,35268305,35270402,35272502,35273302,35282601,35283403,35283601,35283701,35284003,35285001,35286100,35286101,35286301,35286401,35295201,35296503,35296603,35297202,35297302,35298600,35298700,35299705,35303801,35306202,35306302,35306501,35306601,35311601,35315302,35316502,35331501,35331601,35331701,35332201,35338301,35340100,35340200,35340300,35340400,35340501,35340601,35341102,35342701,35343200,35344005,35344702,35344802,35344902,35345600,35345700,35350002,35350501,35352500,35358805,35365200,35365300,35366600,35373602,35373802,35378401,35378501,35379602,35379702,35381301,35383202,35384001,35388602,35388702,35395703,35398800,35398900,35399601,35399900,35400600,35400700,35400800,35400803,35400900,35401000,35401100,35401200,35401800,35402203,35415501,35417303,35418701,35421200,35422400,35422600,35422800,35423000,35423200,35423400,35423500,35424401,35425900,35426000,35426901,35427102,35427803,35428100,35428900,35429000,35429100,35433302,35434201,35434301,35437601,35437701,35438702,35438802,35438902,35439700,35441102,35441402,35441600,35443202,35446800,35451300,35451500,35452502,35452602,35452700,35454200,35454500,35454800,35456600,35457901,35461002,35462301,35462501,35463701,35463801,35463901,35464001,35464901,35467001,35467703,35468500,35469101,35469201,35471601,35475000,35476902,35479000,35479902,35480502,35480804,35488500,35488600,35489301,35489401,35491101,35494301,35502502,35506400,35510800,35510900,35511500,35512802,35519000,35525501,35526403,35526503,35527101,35533500,35535302,35536301,35540501,35540601,35540701,35544101,35558600,35558700,35559601,35564001,35570401,35570501,35570601,35570701,35575402,35577300,35578501,35579500,35579600,35579700,35579800,35582600,35582700,35586502,35593200,35593300,35593400,35598800,35598902,35599100,35601801,35601901,35602702,35603501,35605001,35605700,35605800,35611700,35611800,35611900,35612701,35612802,35617701,35617902,35619400,35619500,35619601,35619701,35623702,35628600,35632401,35632501,35633603,35635701,35637405,35638503,35643900,35647601,35651402,35653502,35653602,35655100,35655200,35655202,35655300,35655400,35657200,35657300,35657301,35657401,35657600,35665701,35665801,35668200,35668201,35670601,35673400,35678504,35681003,35681303,35681503,35681703,35682700,35682800,35682900,35683000,35683100,35683301,35683401,35683800,35683900,35684100,35684200,35688700,35693700,35698302,35703301,35705302,35706702,35708604,35714301,35714902,35715401,35715501,35719700,35719800,35720600,35726302,35726502,35726700,35726800,35726900,35727401,35727501,35730204,35731000,35731501,35735401,35735501,35739202,35742100,35743400,35744200,35744300,35744400,35744600,35750002,35756001,35760202,35765100,35771603,35771902,35773704,35774402,35774602,35777401,35779200,35780401,35781500,35782800,35782900,35783001,35784900,35785000,35785100,35785200,35785800,35790900,35791301,35796601,35797701,35799000,35799401,35811501,35814502,35814804,35820200,35820300,35820400,35821604,35821704,35821803,35822000,35823802,35832302,35833900,35834304,35837201,35839701,35841300,35842102,35842200,35842403,35845204,35846300,35847904,35850604,35850704,35850804,35851601,35851704,35852401,35872602,35876503,35876703,35879002,35880101,35887401,35887501,35893601,35893701,35894304,35901901,35905102,35906100,35906200,35906201,35906300,35906400,35907600,35907700,35907800,35907900,35908000,35908501,35908701,35908801,35912201,35914800,35914900,35916200,35917901,35919403,35920400,35920700,35920900,35921000,35923501,35923700,35927000,35927104,35927300,35928400,35928501,35930200,35931500,35933600,35934601,35938703,35941903,35942003,35945101,35945701,35947303,35950201,35958401,35959004,35959300,35959301,35959400,35959901,35960805,35967100,35967200,35967300,35970701,35970901,35971701,35975701,35977600,35980500,35985100,35987403,35988501,35988601,35998600,35998700,35998800,35998901,35999000,86211500,350211,350324,350329,350351,350354,350371,350372,350373,350374,350375,350376,350377,350378,350403,350404,350405,350406,350415,350422,350427,350428,350429,350430,350431,350432,350433,350434,350443,350444,350463,350464,350465,350466,350565,351207,351208,351209,351210,351211,351212,351213,351229,351252,351253,351254,351261,351262,351263,351265,351266,351290,351291,351295,351296,351297,351298,351299
TOSHIBA,35020904,35699200,35746800,35842300,350209,350628,350924,35232700,35286501,35295001,35446001,35923902,35953900,35966800
XIAOMI,86309202,86529102,86562202,86563002,86604202,86604802,86632802,86639202,86958902,86963001,86598002
ZTE,35085903,35316004,35926403,35933601,35967202,35970800,500053,500142,450093,1229500,86001700,86001800,86001900,86028102,86036902,86085701,86160300,86193201,86219102,86300701,86378402,86407201,86481801,86483300,86608201,86664301,86676902,86685501,86755700,86771901,86866300,86895500,350859,351019,351144,351145,351441,35150801,35182200,35182601,35190000,35203703,35206101,35208502,35212600,35221804,35232201,35235302,35235800,35240203,35245503,35272800,35274000,35283900,35284000,35318801,35320400,35320500,35320600,35336301,35344500,35344600,35403004,35404801,35440002,35495201,35501903,35520104,35545804,35553804,35557204,35580303,35591304,35596601,35611301,35613701,35653204,35653804,35654501,35661204,35670703,35681004,35740701,35753900,35786702,35805103,35806602,35852703,35865800
LENOVO,86622502,86737102,35176701,35191600,35220900,35230201,35236601,35288000,35291201,35297800,35297900,35339101,35350001,35355800,35402800,35506100,35524200,35597700,35627700,35637400,35638800,35640304,35722700,35730700,35743200,35792400,35825302,35840800,35876501,35899300,35899304,35909900,35943100,86000400,86022302,86116602,86121302,86126901,86213000,86217400,86217500,86254102,86258902,86276702,86343802,86380202,86415002,86473701,86567702,86592402,86604302,86604602,86616102,86797002,86907502,35817100
GT-I9300,35316605
ALCATEL,350819,350946,351190,351191,351307,351363,351377,35161300,35161400,35161500,35161600,35161700,35161800,35161900,35162000,35209700,35209800,35209900,35210000,35238702,35265300,35265400,35265500,35265600,35279700,35297402,35303901,35320501,35320601,35357100,35357700,35371400,35371500,35390000,35407700,35407800,35407900,35408000,35418400,35437500,35437700,35459503,35517800,35543200,35592000,35607100,35623703,35631800,35631900,35632000,35633300,35669800,35673600,35712700,35759301,35763802,35850200,35907300,35907400,35956900,35957000,35966600,35977700,35982800,35983000,500007,330001,330002,330003,330004,330005,330007,330008,330009,330010,330014,330015,330019,330020,330023,330027,330033,330034,330045,330046,330049,330060,330061,330073,330074,330075,330085,330087,330088,330089,330090,330091,330092,330093,330100,330101,330102,330103,330106,330125,330126,330140,330141,330174,330175,330176,330177,330178,330179,330180,332021,332025,332039,332040,332041,332042,332051,332063,332064,332097,332098,332110,332111,332112,33211
ALFA,86916300
ALLVIEW,35340303
AMOI,35662603,35859700,35822200,35820800,35776701,35730300,35730200,35722300,35668800,35197701,35584900,35480400,35461801,35422202,35414601,35305501,35209101
